<svg xmlns="http://www.w3.org/2000/svg" width="784" height="610" viewBox="0 0 784 610">
  <path fill="#3F60FB" fill-rule="evenodd" d="M143.085694,-589.914306 L982.10807,-589.914306 C1037.33655,-589.914306 1082.10807,-545.142781 1082.10807,-489.914306 L1082.10807,349.10807 C1082.10807,404.336545 1037.33655,449.10807 982.10807,449.10807 L143.085694,449.10807 C87.8572192,449.10807 43.0856942,404.336545 43.0856942,349.10807 L43.0856942,-489.914306 C43.0856942,-545.142781 87.8572192,-589.914306 143.085694,-589.914306 Z" transform="rotate(-28 562.597 -70.403)"/>
</svg>
